<?xml version="1.0" encoding="utf-8"?>
<!-- Generator: Adobe Illustrator 26.0.1, SVG Export Plug-In . SVG Version: 6.00 Build 0)  -->
<svg version="1.1" id="Layer_2_1_" xmlns="http://www.w3.org/2000/svg" xmlns:xlink="http://www.w3.org/1999/xlink" x="0px" y="0px"
	 width="17px" height="18px" viewBox="0 0 17 18" style="enable-background:new 0 0 17 18;" xml:space="preserve">
<style type="text/css">
	.st0{fill-rule:evenodd;clip-rule:evenodd;}
	.st1{filter:url(#Adobe_OpacityMaskFilter);}
	.st2{fill-rule:evenodd;clip-rule:evenodd;fill:#FFFFFF;}
	.st3{mask:url(#mask-2_00000041290661255826091440000014339609342936226714_);fill-rule:evenodd;clip-rule:evenodd;}
	.st4{filter:url(#Adobe_OpacityMaskFilter_00000112626253974691516380000017061066748696046004_);}
	.st5{mask:url(#mask-2_00000002348168296733866610000014415373364421264778_);fill-rule:evenodd;clip-rule:evenodd;}
</style>
<g id="Listen-On" transform="translate(-1049.000000, -485.000000)">
	<g id="Amazon-Music" transform="translate(1049.000000, 485.000000)">
		<path class="st0" d="M2.7,4.9C2.6,4.8,2.5,4.7,2.5,4.4V3.6c0-0.3,0-0.6-0.2-0.9C2.1,2.6,1.7,2.5,1.5,2.5c-0.5,0-1,0.2-1.1,0.8
			c0,0.1,0,0.1,0.1,0.1l0.5,0.1c0,0,0.1,0,0.1-0.1c0-0.2,0.2-0.3,0.4-0.3c0.1,0,0.2,0,0.3,0.1c0.1,0.1,0.1,0.2,0.1,0.4v0.1
			c-0.3,0-0.7,0.1-0.9,0.2C0.5,3.9,0.3,4.2,0.3,4.6c0,0.5,0.3,0.8,0.7,0.8c0.4,0,0.5-0.1,0.8-0.4C2,5.2,2,5.2,2.2,5.4
			c0,0,0.1,0,0.1,0C2.4,5.3,2.6,5.1,2.7,5C2.7,5,2.7,4.9,2.7,4.9z M1.8,4.1c0,0.2,0,0.4-0.1,0.5C1.6,4.8,1.5,4.9,1.3,4.9
			C1.1,4.9,1,4.7,1,4.5C1,4.1,1.4,4,1.8,4V4.1z"/>
		<path class="st0" d="M2.3,7.1c0.4,0,0.7,0.1,0.8,0.5C3.5,7.2,4,7.1,4.4,7.1c0.3,0,0.5,0.1,0.7,0.3c0.2,0.2,0.2,0.4,0.2,0.7v2.3
			c0,0.1,0,0.1-0.1,0.1H4.8c-0.1,0-0.1,0-0.1-0.1V8.3c0-0.2-0.1-0.4-0.1-0.5C4.5,7.7,4.4,7.6,4.2,7.6c-0.3,0-0.6,0.1-1,0.3v2.5
			c0,0.1,0,0.1-0.1,0.1H2.7c-0.1,0-0.1,0-0.1-0.1V8.3c0-0.2-0.1-0.4-0.1-0.5C2.4,7.7,2.2,7.6,2.1,7.6c-0.3,0-0.6,0.1-1,0.3v2.5
			c0,0.1,0,0.1-0.1,0.1H0.6c-0.1,0-0.1,0-0.1-0.1V7.3c0-0.1,0-0.1,0.1-0.1h0.3c0,0,0.1,0,0.1,0c0,0,0.1,0,0.1,0.1l0,0.2
			C1.5,7.2,1.9,7.1,2.3,7.1z"/>
		<path class="st0" d="M3.1,5.3V2.7c0-0.1,0-0.1,0.1-0.1h0.5c0,0,0.1,0,0.1,0.1V3h0c0.1-0.3,0.4-0.5,0.7-0.5C4.7,2.5,4.9,2.7,5,3
			c0.1-0.3,0.4-0.5,0.7-0.5c0.2,0,0.4,0.1,0.6,0.3C6.5,3,6.4,3.4,6.4,3.6v1.6c0,0,0,0.1-0.1,0.1H5.8c-0.1,0-0.1,0-0.1-0.1V3.9
			c0-0.1,0-0.4,0-0.5c0-0.2-0.2-0.2-0.3-0.2c-0.1,0-0.3,0.1-0.3,0.2c0,0.1,0,0.3,0,0.5v1.4c0,0,0,0.1-0.1,0.1H4.5c0,0-0.1,0-0.1-0.1
			V3.9c0-0.3,0-0.7-0.3-0.7S3.7,3.6,3.7,3.9v1.4c0,0,0,0.1-0.1,0.1L3.1,5.3C3.1,5.3,3.1,5.3,3.1,5.3z"/>
		<path class="st0" d="M6.3,7.2h0.4c0.1,0,0.1,0,0.1,0.1v2.1c0,0.2,0,0.4,0.1,0.5c0.1,0.1,0.2,0.2,0.5,0.2c0.3,0,0.6-0.1,0.9-0.3
			V7.3c0-0.1,0-0.1,0.2-0.1h0.4C9,7.2,9,7.2,9,7.3v3.1c0,0.1,0,0.1-0.1,0.1H8.6c-0.1,0-0.1,0-0.1,0c0,0-0.1,0-0.1-0.1l0-0.2
			c-0.4,0.3-0.8,0.4-1.3,0.4c-0.3,0-0.6-0.1-0.7-0.3c-0.2-0.2-0.2-0.4-0.2-0.7V7.3C6.2,7.2,6.2,7.2,6.3,7.2z"/>
		<path class="st0" d="M9.2,4.9C9.1,4.8,9,4.7,9,4.4V3.6c0-0.3,0-0.6-0.2-0.9C8.6,2.6,8.3,2.5,8.1,2.5c-0.5,0-1,0.2-1.1,0.8
			c0,0.1,0,0.1,0.1,0.1l0.5,0.1c0,0,0.1,0,0.1-0.1c0-0.2,0.2-0.3,0.4-0.3c0.1,0,0.2,0,0.3,0.1c0.1,0.1,0.1,0.2,0.1,0.4v0.1
			C8,3.6,7.7,3.7,7.4,3.8C7.1,3.9,6.9,4.2,6.9,4.6c0,0.5,0.3,0.8,0.7,0.8C8,5.4,8.2,5.3,8.4,5c0.1,0.1,0.1,0.2,0.3,0.3
			c0,0,0.1,0,0.1,0C8.9,5.3,9.1,5.1,9.2,5C9.3,5,9.3,4.9,9.2,4.9z M8.3,4.1c0,0.2,0,0.4-0.1,0.5C8.2,4.8,8,4.9,7.9,4.9
			c-0.2,0-0.3-0.1-0.3-0.4C7.6,4.1,8,4,8.3,4V4.1z"/>
		<path class="st0" d="M9.6,5.2V4.8c0-0.1,0-0.2,0.1-0.3l1-1.4H9.7c-0.1,0-0.1,0-0.1-0.1V2.7c0-0.1,0-0.1,0.1-0.1h1.6
			c0.1,0,0.1,0,0.1,0.1V3c0,0.1,0,0.1-0.1,0.2l-0.8,1.2c0.3,0,0.6,0,0.9,0.2c0.1,0,0.1,0.1,0.1,0.1v0.4c0,0.1-0.1,0.1-0.1,0.1
			C10.9,5,10.2,5,9.7,5.3C9.6,5.3,9.6,5.2,9.6,5.2z"/>
		<path class="st0" d="M10.9,7.1c0.3,0,0.6,0.1,0.8,0.1c0.1,0,0.1,0,0.1,0.1c0,0,0,0.1,0,0.1v0.2c0,0.1,0,0.1-0.1,0.1
			c0,0-0.1,0-0.2,0c-0.2-0.1-0.5-0.1-0.7-0.1c-0.4,0-0.6,0.2-0.6,0.4c0,0.1,0,0.2,0.1,0.3c0.1,0.1,0.2,0.2,0.4,0.2l0.5,0.2
			c0.3,0.1,0.5,0.2,0.6,0.4c0.1,0.2,0.2,0.3,0.2,0.5c0,0.3-0.1,0.6-0.4,0.7c-0.2,0.2-0.5,0.3-0.9,0.3c-0.4,0-0.7-0.1-1-0.2
			c-0.1,0-0.1-0.1-0.1-0.1c0,0,0-0.1,0-0.1v-0.2c0-0.1,0-0.1,0.1-0.1c0,0,0.1,0,0.2,0c0.3,0.1,0.6,0.1,0.9,0.1
			c0.2,0,0.4-0.1,0.5-0.1c0.1-0.1,0.2-0.2,0.2-0.4c0-0.1,0-0.2-0.1-0.3c-0.1-0.1-0.2-0.1-0.4-0.2L10.4,9C10,8.8,9.7,8.5,9.7,8
			c0-0.3,0.1-0.5,0.3-0.7C10.3,7.2,10.6,7.1,10.9,7.1z"/>
		<path class="st0" d="M13.2,7.2c0.1,0,0.1,0.1,0.1,0.1v3.1c0,0.1,0,0.1-0.1,0.1h-0.4c-0.1,0-0.1,0-0.1-0.1V7.3c0-0.1,0-0.1,0.1-0.1
			H13.2z"/>
		<path class="st0" d="M13.4,6.2c0,0.1,0,0.2-0.1,0.3c-0.1,0.1-0.2,0.1-0.3,0.1c-0.1,0-0.2,0-0.3-0.1c-0.1-0.1-0.1-0.2-0.1-0.3
			c0-0.1,0-0.2,0.1-0.3c0.1-0.1,0.2-0.1,0.3-0.1c0.1,0,0.2,0,0.3,0.1C13.4,6,13.4,6.1,13.4,6.2z"/>
		<path class="st0" d="M12.9,2.6c-0.7,0-1.1,0.6-1.1,1.4c0,0.8,0.4,1.4,1.1,1.4C13.6,5.4,14,4.8,14,4C14,3.2,13.6,2.6,12.9,2.6z
			 M12.9,4.9c-0.4,0-0.4-0.7-0.4-1c0-0.3,0-0.8,0.4-0.8c0.2,0,0.3,0.1,0.3,0.2c0.1,0.2,0.1,0.5,0.1,0.7C13.3,4.3,13.3,4.9,12.9,4.9z
			"/>
		<path class="st0" d="M15.2,13.4c-1.8,1.3-4.4,2-6.7,2c-3.2,0-6-1.2-8.2-3.1c-0.1-0.1-0.1-0.3,0.1-0.3c0,0,0.1,0,0.1,0
			c2.3,1.4,5.2,2.2,8.2,2.2c2,0,4.2-0.4,6.2-1.3C15.3,12.9,15.6,13.2,15.2,13.4z"/>
		<path class="st0" d="M14,8.9c0-0.6,0.2-1,0.4-1.3c0.3-0.3,0.7-0.5,1.2-0.5c0.2,0,0.5,0.1,0.7,0.1c0,0,0.1,0.1,0.1,0.1
			c0,0,0,0.1,0,0.1v0.2c0,0.1,0,0.1-0.1,0.1c0,0-0.1,0-0.1,0c-0.2-0.1-0.4-0.1-0.5-0.1c-0.4,0-0.6,0.1-0.8,0.3
			c-0.2,0.2-0.2,0.5-0.3,0.9v0.1c0,0.4,0.1,0.7,0.2,0.9c0.2,0.2,0.4,0.3,0.8,0.3c0.2,0,0.4,0,0.6-0.1c0,0,0.1,0,0.1,0
			c0.1,0,0.1,0,0.1,0.1v0.2c0,0.1,0,0.1,0,0.1c0,0-0.1,0.1-0.1,0.1c-0.2,0.1-0.5,0.1-0.7,0.1c-0.5,0-0.9-0.1-1.2-0.4
			C14.1,9.9,14,9.4,14,8.9z"/>
		<path class="st0" d="M14.4,5.3V2.7c0,0,0-0.1,0.1-0.1H15c0,0,0.1,0,0.1,0.1v0.4h0c0.1-0.4,0.3-0.5,0.7-0.5c0.2,0,0.4,0.1,0.6,0.3
			c0.1,0.2,0.1,0.6,0.1,0.8v1.6c0,0,0,0.1-0.1,0.1h-0.5c0,0-0.1,0-0.1-0.1V3.9c0-0.3,0-0.7-0.3-0.7c-0.1,0-0.2,0.1-0.3,0.2
			c-0.1,0.2-0.1,0.3-0.1,0.5v1.4c0,0,0,0.1-0.1,0.1L14.4,5.3C14.5,5.3,14.4,5.3,14.4,5.3z"/>
		<path class="st0" d="M15.8,14.8c-0.2,0.1-0.3,0.1-0.2-0.1c0.2-0.5,0.7-1.8,0.5-2.1c-0.2-0.3-1.5-0.1-2.1-0.1c-0.2,0-0.2-0.1,0-0.2
			c0.5-0.4,1.2-0.5,1.8-0.5c0.6,0,1,0.1,1.1,0.2C17,12.2,16.7,13.9,15.8,14.8z"/>
		<g id="Group-9" transform="translate(9.000000, 11.000000)">
			<g id="Group-5" transform="translate(0.000000, 5.000000)">
				<path class="st0" d="M3.1-6.4c0,0.3-0.1,0.6-0.4,0.7C2.5-5.5,2.2-5.4,1.8-5.4c-0.4,0-0.7-0.1-1-0.2c-0.1,0-0.1-0.1-0.1-0.1
					c0,0,0-0.1,0-0.1v-0.2C0.7-6,0.7-6,0.7-6c0,0,0.1,0,0.2,0c0.3,0.1,0.6,0.1,0.9,0.1C2-5.9,2.2-5.9,2.3-6c0.1-0.1,0.2-0.2,0.2-0.4
					c0-0.1,0-0.2-0.1-0.3C2.3-6.7,2.2-6.8,2-6.8L1.4-7C1-7.2,0.7-7.5,0.7-8c0-0.3,0.1-0.5,0.3-0.7c0.2-0.2,0.5-0.3,0.9-0.3
					c0.3,0,0.6,0.1,0.8,0.1c0.1,0,0.1,0,0.1,0.1c0,0,0,0.1,0,0.1v0.2c0,0.1,0,0.1-0.1,0.1c0,0-0.1,0-0.2,0C2.4-8.4,2.2-8.4,2-8.4
					C1.5-8.4,1.3-8.3,1.3-8c0,0.1,0,0.2,0.1,0.3c0.1,0.1,0.2,0.2,0.4,0.2l0.5,0.2c0.3,0.1,0.5,0.2,0.6,0.4C3-6.8,3.1-6.6,3.1-6.4z"
					/>
				<path class="st0" d="M4.4-9.8c0,0.1,0,0.2-0.1,0.3C4.2-9.4,4.1-9.4,4-9.4c-0.1,0-0.2,0-0.3-0.1C3.6-9.6,3.6-9.7,3.6-9.8
					s0-0.2,0.1-0.3c0.1-0.1,0.2-0.1,0.3-0.1c0.1,0,0.2,0,0.3,0.1C4.4-10,4.4-9.9,4.4-9.8z"/>
				<path class="st0" d="M4.3-8.7v3.1c0,0.1,0,0.1-0.1,0.1H3.8c-0.1,0-0.1,0-0.1-0.1v-3.1c0-0.1,0-0.1,0.1-0.1h0.4
					C4.3-8.8,4.3-8.8,4.3-8.7z"/>
				<path class="st0" d="M5.7-7.2L5.7-7.2c0,0.5,0.1,0.8,0.2,1C6.1-6,6.3-5.9,6.7-5.9c0.2,0,0.4,0,0.6-0.1c0,0,0.1,0,0.1,0
					c0.1,0,0.1,0,0.1,0.1v0.2c0,0.1,0,0.1,0,0.1c0,0-0.1,0.1-0.1,0.1C7.1-5.4,6.9-5.4,6.6-5.4c-0.5,0-0.9-0.1-1.2-0.4
					C5.1-6.1,5-6.6,5-7.1c0-0.6,0.2-1,0.4-1.3c0.3-0.3,0.7-0.5,1.2-0.5c0.2,0,0.5,0.1,0.7,0.1c0,0,0.1,0.1,0.1,0.1c0,0,0,0.1,0,0.1
					v0.2c0,0.1,0,0.1-0.1,0.1c0,0-0.1,0-0.1,0C7.1-8.3,6.9-8.4,6.7-8.4c-0.4,0-0.6,0.1-0.8,0.3C5.8-7.9,5.7-7.6,5.7-7.2z"/>
				<path class="st0" d="M-3.6-7.9v2.3c0,0.1,0,0.1-0.1,0.1h-0.4c-0.1,0-0.1,0-0.1-0.1v-2.1c0-0.2-0.1-0.4-0.1-0.5
					c-0.1-0.1-0.2-0.2-0.4-0.2c-0.3,0-0.6,0.1-1,0.3v2.5c0,0.1,0,0.1-0.1,0.1h-0.4c-0.1,0-0.1,0-0.1-0.1v-2.1c0-0.2-0.1-0.4-0.1-0.5
					c-0.1-0.1-0.2-0.2-0.4-0.2c-0.3,0-0.6,0.1-1,0.3v2.5c0,0.1,0,0.1-0.1,0.1h-0.4c-0.1,0-0.1,0-0.1-0.1v-3.1c0-0.1,0-0.1,0.1-0.1
					h0.3c0,0,0.1,0,0.1,0c0,0,0.1,0,0.1,0.1l0,0.2c0.4-0.3,0.8-0.4,1.2-0.4c0.4,0,0.7,0.1,0.8,0.5C-5.5-8.8-5-8.9-4.6-8.9
					c0.3,0,0.5,0.1,0.7,0.3C-3.7-8.5-3.6-8.2-3.6-7.9z"/>
				<path class="st0" d="M0-8.7v3.1c0,0.1,0,0.1-0.1,0.1h-0.3c-0.1,0-0.1,0-0.1,0c0,0-0.1,0-0.1-0.1l0-0.2C-1-5.5-1.4-5.4-1.8-5.4
					c-0.3,0-0.6-0.1-0.7-0.3c-0.2-0.2-0.2-0.4-0.2-0.7v-2.3c0-0.1,0-0.1,0.1-0.1h0.4c0.1,0,0.1,0,0.1,0.1v2.1c0,0.2,0,0.4,0.1,0.5
					C-1.9-6-1.8-5.9-1.6-5.9c0.3,0,0.6-0.1,0.9-0.3v-2.5c0-0.1,0-0.1,0.2-0.1h0.4C0-8.8,0-8.8,0-8.7z"/>
				<path class="st0" d="M6.8-1.2C6.6-1.1,6.5-1.2,6.5-1.4C6.7-1.9,7.2-3.1,7-3.4C6.8-3.7,5.5-3.6,4.9-3.5c-0.2,0-0.2-0.1,0-0.2
					c0.5-0.4,1.2-0.5,1.8-0.5c0.6,0,1,0.1,1.1,0.2C8-3.8,7.7-2.1,6.8-1.2z"/>
				<path class="st0" d="M6.2-2.6c-1.8,1.3-4.4,2-6.7,2c-3.2,0-6-1.2-8.2-3.1c-0.1-0.1-0.1-0.3,0.1-0.3c0,0,0.1,0,0.1,0
					c2.3,1.4,5.2,2.2,8.2,2.2C1.7-1.7,4-2.1,6-3C6.3-3.1,6.6-2.8,6.2-2.6z"/>
			</g>
			<g id="Group-8">
				<path class="st0" d="M2.5-6.2v0.4c0,0.1-0.1,0.1-0.1,0.1C1.9-6,1.2-6,0.7-5.7c-0.1,0-0.1,0-0.1-0.1v-0.4c0-0.1,0-0.2,0.1-0.3
					l1-1.4H0.7c-0.1,0-0.1,0-0.1-0.1v-0.4c0-0.1,0-0.1,0.1-0.1h1.6c0.1,0,0.1,0,0.1,0.1V-8c0,0.1,0,0.1-0.1,0.2L1.5-6.5
					c0.3,0,0.6,0,0.9,0.2C2.5-6.3,2.5-6.3,2.5-6.2z"/>
				<path class="st0" d="M-2.6-7.4v1.6c0,0,0,0.1-0.1,0.1h-0.5c-0.1,0-0.1,0-0.1-0.1v-1.4c0-0.1,0-0.4,0-0.5c0-0.2-0.2-0.2-0.3-0.2
					c-0.1,0-0.3,0.1-0.3,0.2c0,0.1,0,0.3,0,0.5v1.4c0,0,0,0.1-0.1,0.1h-0.5c0,0-0.1,0-0.1-0.1v-1.4c0-0.3,0-0.7-0.3-0.7
					s-0.3,0.4-0.3,0.7v1.4c0,0,0,0.1-0.1,0.1h-0.5c0,0-0.1,0-0.1-0.1v-2.6c0-0.1,0-0.1,0.1-0.1h0.5c0,0,0.1,0,0.1,0.1V-8h0
					c0.1-0.3,0.4-0.5,0.7-0.5C-4.3-8.5-4.1-8.3-4-8c0.1-0.3,0.4-0.5,0.7-0.5c0.2,0,0.4,0.1,0.6,0.3C-2.5-8-2.6-7.6-2.6-7.4z"/>
				<path id="Fill-7" class="st0" d="M3.9-8.4C3.2-8.4,2.8-7.8,2.8-7c0,0.8,0.4,1.4,1.1,1.4C4.6-5.6,5-6.2,5-7
					C5-7.8,4.6-8.4,3.9-8.4z M3.9-6.1c-0.4,0-0.4-0.7-0.4-1c0-0.3,0-0.8,0.4-0.8c0.2,0,0.3,0.1,0.3,0.2C4.3-7.5,4.3-7.2,4.3-7
					C4.3-6.7,4.3-6.1,3.9-6.1z"/>
				<path class="st0" d="M7.5-7.3v1.6c0,0,0,0.1-0.1,0.1H6.9c0,0-0.1,0-0.1-0.1v-1.4c0-0.3,0-0.7-0.3-0.7c-0.1,0-0.2,0.1-0.3,0.2
					C6.1-7.5,6.1-7.3,6.1-7.1v1.4c0,0,0,0.1-0.1,0.1H5.5c0,0-0.1,0-0.1-0.1v-2.6c0,0,0-0.1,0.1-0.1H6c0,0,0.1,0,0.1,0.1v0.4h0
					c0.1-0.4,0.3-0.5,0.7-0.5c0.2,0,0.4,0.1,0.6,0.3C7.5-7.9,7.5-7.6,7.5-7.3z"/>
				<g id="Group-12">
					<g id="Clip-10">
					</g>
					<defs>
						<filter id="Adobe_OpacityMaskFilter" filterUnits="userSpaceOnUse" x="-2.1" y="-8.5" width="2.4" height="2.9">
							<feColorMatrix  type="matrix" values="1 0 0 0 0  0 1 0 0 0  0 0 1 0 0  0 0 0 1 0"/>
						</filter>
					</defs>
					
						<mask maskUnits="userSpaceOnUse" x="-2.1" y="-8.5" width="2.4" height="2.9" id="mask-2_00000041290661255826091440000014339609342936226714_">
						<g class="st1">
							<polygon id="path-1_00000048472538233818320720000002835874067781946253_" class="st2" points="-8.7,-8.5 0.3,-8.5 0.3,-5.6 
								-8.7,-5.6 							"/>
						</g>
					</mask>
					<path id="Fill-9" class="st3" d="M0.2-6.1C0.1-6.2,0-6.3,0-6.6v-0.8c0-0.3,0-0.6-0.2-0.9c-0.2-0.2-0.5-0.3-0.8-0.3
						c-0.5,0-1,0.2-1.1,0.8c0,0.1,0,0.1,0.1,0.1l0.5,0.1c0,0,0.1,0,0.1-0.1c0-0.2,0.2-0.3,0.4-0.3c0.1,0,0.2,0,0.3,0.1
						c0.1,0.1,0.1,0.2,0.1,0.4v0.1c-0.3,0-0.7,0.1-0.9,0.2c-0.3,0.1-0.5,0.4-0.5,0.8c0,0.5,0.3,0.8,0.7,0.8C-1-5.6-0.8-5.7-0.6-6
						c0.1,0.1,0.1,0.2,0.3,0.3c0,0,0.1,0,0.1,0C-0.1-5.7,0.1-5.9,0.2-6C0.3-6,0.3-6.1,0.2-6.1z M-0.7-6.9c0,0.2,0,0.4-0.1,0.5
						C-0.8-6.2-1-6.1-1.1-6.1c-0.2,0-0.3-0.1-0.3-0.4C-1.4-6.9-1-7-0.7-7V-6.9z"/>
					<defs>
						
							<filter id="Adobe_OpacityMaskFilter_00000182505908857032094940000003869221524048949175_" filterUnits="userSpaceOnUse" x="-8.7" y="-8.5" width="2.4" height="2.9">
							<feColorMatrix  type="matrix" values="1 0 0 0 0  0 1 0 0 0  0 0 1 0 0  0 0 0 1 0"/>
						</filter>
					</defs>
					
						<mask maskUnits="userSpaceOnUse" x="-8.7" y="-8.5" width="2.4" height="2.9" id="mask-2_00000002348168296733866610000014415373364421264778_">
						<g style="filter:url(#Adobe_OpacityMaskFilter_00000182505908857032094940000003869221524048949175_);">
							<polygon id="path-1_00000057861316919205601840000005927611164932153985_" class="st2" points="-8.7,-8.5 0.3,-8.5 0.3,-5.6 
								-8.7,-5.6 							"/>
						</g>
					</mask>
					<path id="Fill-11" class="st5" d="M-6.3-6.1c-0.1-0.1-0.2-0.2-0.2-0.5v-0.8c0-0.3,0-0.6-0.2-0.9c-0.2-0.2-0.5-0.3-0.8-0.3
						c-0.5,0-1,0.2-1.1,0.8c0,0.1,0,0.1,0.1,0.1l0.5,0.1c0,0,0.1,0,0.1-0.1c0-0.2,0.2-0.3,0.4-0.3c0.1,0,0.2,0,0.3,0.1
						c0.1,0.1,0.1,0.2,0.1,0.4v0.1c-0.3,0-0.7,0.1-0.9,0.2c-0.3,0.1-0.5,0.4-0.5,0.8c0,0.5,0.3,0.8,0.7,0.8c0.4,0,0.5-0.1,0.8-0.4
						C-7-5.8-7-5.8-6.8-5.6c0,0,0.1,0,0.1,0C-6.6-5.7-6.4-5.9-6.3-6C-6.3-6-6.3-6.1-6.3-6.1z M-7.2-6.9c0,0.2,0,0.4-0.1,0.5
						c-0.1,0.1-0.2,0.2-0.3,0.2C-7.9-6.1-8-6.3-8-6.5C-8-6.9-7.6-7-7.2-7V-6.9z"/>
				</g>
			</g>
		</g>
	</g>
	<path d="M1051.7,489.9c-0.1-0.1-0.2-0.2-0.2-0.5v-0.8c0-0.3,0-0.6-0.2-0.9c-0.2-0.2-0.5-0.3-0.8-0.3c-0.5,0-1,0.2-1.1,0.8
		c0,0.1,0,0.1,0.1,0.1l0.5,0.1c0,0,0.1,0,0.1-0.1c0-0.2,0.2-0.3,0.4-0.3c0.1,0,0.2,0,0.3,0.1c0.1,0.1,0.1,0.2,0.1,0.4v0.1
		c-0.3,0-0.7,0.1-0.9,0.2c-0.3,0.1-0.5,0.4-0.5,0.8c0,0.5,0.3,0.8,0.7,0.8c0.4,0,0.5-0.1,0.8-0.4c0.1,0.1,0.1,0.2,0.3,0.3
		c0,0,0.1,0,0.1,0c0.1-0.1,0.3-0.2,0.4-0.3C1051.7,490,1051.7,489.9,1051.7,489.9z M1050.8,489.1c0,0.2,0,0.4-0.1,0.5
		c-0.1,0.1-0.2,0.2-0.3,0.2c-0.2,0-0.3-0.1-0.3-0.4c0-0.4,0.4-0.5,0.7-0.5V489.1z"/>
	<path d="M1051.3,492.1c0.4,0,0.7,0.1,0.8,0.5c0.4-0.3,0.9-0.5,1.3-0.5c0.3,0,0.5,0.1,0.7,0.3c0.2,0.2,0.2,0.4,0.2,0.7v2.3
		c0,0.1,0,0.1-0.1,0.1h-0.4c-0.1,0-0.1,0-0.1-0.1v-2.1c0-0.2-0.1-0.4-0.1-0.5c-0.1-0.1-0.2-0.2-0.4-0.2c-0.3,0-0.6,0.1-1,0.3v2.5
		c0,0.1,0,0.1-0.1,0.1h-0.4c-0.1,0-0.1,0-0.1-0.1v-2.1c0-0.2-0.1-0.4-0.1-0.5c-0.1-0.1-0.2-0.2-0.4-0.2c-0.3,0-0.6,0.1-1,0.3v2.5
		c0,0.1,0,0.1-0.1,0.1h-0.4c-0.1,0-0.1,0-0.1-0.1v-3.1c0-0.1,0-0.1,0.1-0.1h0.3c0,0,0.1,0,0.1,0c0,0,0.1,0,0.1,0.1l0,0.2
		C1050.5,492.2,1050.9,492.1,1051.3,492.1z"/>
	<path d="M1052.1,490.3v-2.6c0-0.1,0-0.1,0.1-0.1h0.5c0,0,0.1,0,0.1,0.1v0.3h0c0.1-0.3,0.4-0.5,0.7-0.5c0.3,0,0.5,0.2,0.6,0.5
		c0.1-0.3,0.4-0.5,0.7-0.5c0.2,0,0.4,0.1,0.6,0.3c0.2,0.2,0.1,0.5,0.1,0.8v1.6c0,0,0,0.1-0.1,0.1h-0.5c-0.1,0-0.1,0-0.1-0.1v-1.4
		c0-0.1,0-0.4,0-0.5c0-0.2-0.2-0.2-0.3-0.2c-0.1,0-0.3,0.1-0.3,0.2c0,0.1,0,0.3,0,0.5v1.4c0,0,0,0.1-0.1,0.1h-0.5c0,0-0.1,0-0.1-0.1
		v-1.4c0-0.3,0-0.7-0.3-0.7s-0.3,0.4-0.3,0.7v1.4c0,0,0,0.1-0.1,0.1L1052.1,490.3C1052.1,490.3,1052.1,490.3,1052.1,490.3z"/>
	<path d="M1055.3,492.2h0.4c0.1,0,0.1,0,0.1,0.1v2.1c0,0.2,0,0.4,0.1,0.5c0.1,0.1,0.2,0.2,0.5,0.2c0.3,0,0.6-0.1,0.9-0.3v-2.5
		c0-0.1,0-0.1,0.2-0.1h0.4c0.1,0,0.1,0,0.1,0.1v3.1c0,0.1,0,0.1-0.1,0.1h-0.3c-0.1,0-0.1,0-0.1,0c0,0-0.1,0-0.1-0.1l0-0.2
		c-0.4,0.3-0.8,0.4-1.3,0.4c-0.3,0-0.6-0.1-0.7-0.3c-0.2-0.2-0.2-0.4-0.2-0.7v-2.3C1055.2,492.2,1055.2,492.2,1055.3,492.2z"/>
	<path d="M1058.2,489.9c-0.1-0.1-0.2-0.2-0.2-0.5v-0.8c0-0.3,0-0.6-0.2-0.9c-0.2-0.2-0.5-0.3-0.8-0.3c-0.5,0-1,0.2-1.1,0.8
		c0,0.1,0,0.1,0.1,0.1l0.5,0.1c0,0,0.1,0,0.1-0.1c0-0.2,0.2-0.3,0.4-0.3c0.1,0,0.2,0,0.3,0.1c0.1,0.1,0.1,0.2,0.1,0.4v0.1
		c-0.3,0-0.7,0.1-0.9,0.2c-0.3,0.1-0.5,0.4-0.5,0.8c0,0.5,0.3,0.8,0.7,0.8c0.4,0,0.5-0.1,0.8-0.4c0.1,0.1,0.1,0.2,0.3,0.3
		c0,0,0.1,0,0.1,0c0.1-0.1,0.3-0.2,0.4-0.3C1058.3,490,1058.3,489.9,1058.2,489.9z M1057.3,489.1c0,0.2,0,0.4-0.1,0.5
		c-0.1,0.1-0.2,0.2-0.4,0.2c-0.2,0-0.3-0.1-0.3-0.4c0-0.4,0.4-0.5,0.7-0.5V489.1z"/>
	<path d="M1058.6,490.2v-0.4c0-0.1,0-0.2,0.1-0.3l1-1.4h-0.9c-0.1,0-0.1,0-0.1-0.1v-0.4c0-0.1,0-0.1,0.1-0.1h1.6
		c0.1,0,0.1,0,0.1,0.1v0.3c0,0.1,0,0.1-0.1,0.2l-0.8,1.2c0.3,0,0.6,0,0.9,0.2c0.1,0,0.1,0.1,0.1,0.1v0.4c0,0.1-0.1,0.1-0.1,0.1
		c-0.5-0.3-1.2-0.3-1.7,0C1058.6,490.3,1058.6,490.2,1058.6,490.2z"/>
	<path d="M1059.9,492.1c0.3,0,0.6,0.1,0.8,0.1c0.1,0,0.1,0,0.1,0.1c0,0,0,0.1,0,0.1v0.2c0,0.1,0,0.1-0.1,0.1c0,0-0.1,0-0.2,0
		c-0.2-0.1-0.5-0.1-0.7-0.1c-0.4,0-0.6,0.2-0.6,0.4c0,0.1,0,0.2,0.1,0.3c0.1,0.1,0.2,0.2,0.4,0.2l0.5,0.2c0.3,0.1,0.5,0.2,0.6,0.4
		c0.1,0.2,0.2,0.3,0.2,0.5c0,0.3-0.1,0.6-0.4,0.7c-0.2,0.2-0.5,0.3-0.9,0.3c-0.4,0-0.7-0.1-1-0.2c-0.1,0-0.1-0.1-0.1-0.1
		c0,0,0-0.1,0-0.1v-0.2c0-0.1,0-0.1,0.1-0.1c0,0,0.1,0,0.2,0c0.3,0.1,0.6,0.1,0.9,0.1c0.2,0,0.4-0.1,0.5-0.1
		c0.1-0.1,0.2-0.2,0.2-0.4c0-0.1,0-0.2-0.1-0.3c-0.1-0.1-0.2-0.1-0.4-0.2l-0.6-0.2c-0.5-0.2-0.7-0.5-0.7-0.9c0-0.3,0.1-0.5,0.3-0.7
		C1059.3,492.2,1059.6,492.1,1059.9,492.1z"/>
	<path d="M1062.2,492.2c0.1,0,0.1,0.1,0.1,0.1v3.1c0,0.1,0,0.1-0.1,0.1h-0.4c-0.1,0-0.1,0-0.1-0.1v-3.1c0-0.1,0-0.1,0.1-0.1H1062.2z
		"/>
	<path d="M1062.4,491.2c0,0.1,0,0.2-0.1,0.3c-0.1,0.1-0.2,0.1-0.3,0.1c-0.1,0-0.2,0-0.3-0.1c-0.1-0.1-0.1-0.2-0.1-0.3s0-0.2,0.1-0.3
		c0.1-0.1,0.2-0.1,0.3-0.1c0.1,0,0.2,0,0.3,0.1C1062.4,491,1062.4,491.1,1062.4,491.2z"/>
	<path d="M1061.9,487.6c-0.7,0-1.1,0.6-1.1,1.4c0,0.8,0.4,1.4,1.1,1.4c0.7,0,1.1-0.6,1.1-1.4C1063,488.2,1062.6,487.6,1061.9,487.6z
		 M1061.9,489.9c-0.4,0-0.4-0.7-0.4-1c0-0.3,0-0.8,0.4-0.8c0.2,0,0.3,0.1,0.3,0.2c0.1,0.2,0.1,0.5,0.1,0.7
		C1062.3,489.3,1062.3,489.9,1061.9,489.9z"/>
	<path d="M1064.2,498.4c-1.8,1.3-4.4,2-6.7,2c-3.2,0-6-1.2-8.2-3.1c-0.1-0.1-0.1-0.3,0.1-0.3c0,0,0.1,0,0.1,0
		c2.3,1.4,5.2,2.2,8.2,2.2c2,0,4.2-0.4,6.2-1.3C1064.3,497.9,1064.6,498.2,1064.2,498.4z"/>
	<path d="M1063,493.9c0-0.6,0.2-1,0.4-1.3c0.3-0.3,0.7-0.5,1.2-0.5c0.2,0,0.5,0.1,0.7,0.1c0,0,0.1,0.1,0.1,0.1c0,0,0,0.1,0,0.1v0.2
		c0,0.1,0,0.1-0.1,0.1c0,0-0.1,0-0.1,0c-0.2-0.1-0.4-0.1-0.5-0.1c-0.4,0-0.6,0.1-0.8,0.3c-0.2,0.2-0.2,0.5-0.3,0.9v0.1
		c0,0.4,0.1,0.7,0.2,0.9c0.2,0.2,0.4,0.3,0.8,0.3c0.2,0,0.4,0,0.6-0.1c0,0,0.1,0,0.1,0c0.1,0,0.1,0,0.1,0.1v0.2c0,0.1,0,0.1,0,0.1
		c0,0-0.1,0.1-0.1,0.1c-0.2,0.1-0.5,0.1-0.7,0.1c-0.5,0-0.9-0.1-1.2-0.4C1063.1,494.9,1063,494.4,1063,493.9z"/>
	<path d="M1063.4,490.3v-2.6c0,0,0-0.1,0.1-0.1h0.5c0,0,0.1,0,0.1,0.1v0.4h0c0.1-0.4,0.3-0.5,0.7-0.5c0.2,0,0.4,0.1,0.6,0.3
		c0.1,0.2,0.1,0.6,0.1,0.8v1.6c0,0,0,0.1-0.1,0.1h-0.5c0,0-0.1,0-0.1-0.1v-1.4c0-0.3,0-0.7-0.3-0.7c-0.1,0-0.2,0.1-0.3,0.2
		c-0.1,0.2-0.1,0.3-0.1,0.5v1.4c0,0,0,0.1-0.1,0.1L1063.4,490.3C1063.5,490.3,1063.4,490.3,1063.4,490.3z"/>
	<path d="M1064.8,499.8c-0.2,0.1-0.3,0.1-0.2-0.1c0.2-0.5,0.7-1.8,0.5-2.1c-0.2-0.3-1.5-0.1-2.1-0.1c-0.2,0-0.2-0.1,0-0.2
		c0.5-0.4,1.2-0.5,1.8-0.5c0.6,0,1,0.1,1.1,0.2C1066,497.2,1065.7,498.9,1064.8,499.8z"/>
</g>
</svg>
