{
    "key": "group_607c9b19e2b18",
    "title": "Homepage",
    "fields": [
        {
            "key": "field_607c9b1e585fa",
            "label": "Headline",
            "name": "headline",
            "type": "text",
            "instructions": "The headline at the top of the page.",
            "required": 0,
            "conditional_logic": 0,
            "wrapper": {
                "width": "",
                "class": "",
                "id": ""
            },
            "default_value": "",
            "placeholder": "",
            "prepend": "",
            "append": "",
            "maxlength": ""
        },
        {
            "key": "field_607c9bd1585fb",
            "label": "Featured Content",
            "name": "featured_content",
            "type": "relationship",
            "instructions": "The headline at the top of the page.",
            "required": 0,
            "conditional_logic": 0,
            "wrapper": {
                "width": "",
                "class": "",
                "id": ""
            },
            "post_type": [
                "video",
                "podcast",
                "article"
            ],
            "taxonomy": "",
            "filters": [
                "search",
                "post_type",
                "taxonomy"
            ],
            "elements": [
                "featured_image"
            ],
            "min": "",
            "max": "",
            "return_format": "object"
        },
        {
            "key": "field_620a983cfc61c",
            "label": "Show Trailer",
            "name": "show_trailer",
            "type": "true_false",
            "instructions": "Check this box if you would like the \"Watch our Trailer\" button to appear on the homepage.",
            "required": 0,
            "conditional_logic": 0,
            "wrapper": {
                "width": "",
                "class": "",
                "id": ""
            },
            "message": "Show trailer?",
            "default_value": 0,
            "ui": 0,
            "ui_on_text": "",
            "ui_off_text": ""
        },
        {
            "key": "field_620a987bfc61d",
            "label": "Youtube Link",
            "name": "youtube",
            "type": "oembed",
            "instructions": "Add the youtube video",
            "required": 1,
            "conditional_logic": [
                [
                    {
                        "field": "field_620a983cfc61c",
                        "operator": "==",
                        "value": "1"
                    }
                ]
            ],
            "wrapper": {
                "width": "",
                "class": "",
                "id": ""
            },
            "width": "",
            "height": ""
        }
    ],
    "location": [
        [
            {
                "param": "page_template",
                "operator": "==",
                "value": "template-homepage.php"
            }
        ]
    ],
    "menu_order": 0,
    "position": "normal",
    "style": "default",
    "label_placement": "top",
    "instruction_placement": "label",
    "hide_on_screen": [
        "the_content",
        "excerpt",
        "discussion",
        "comments",
        "revisions",
        "slug",
        "author",
        "format",
        "categories",
        "tags",
        "send-trackbacks"
    ],
    "active": true,
    "description": "",
    "modified": 1644862077
}