{
    "key": "group_6075bb5fb6009",
    "title": "Podcast Seasons Information (Taxonomy)",
    "fields": [
        {
            "key": "field_6075bb5fbecd7",
            "label": "Season Title",
            "name": "series_title",
            "type": "text",
            "instructions": "The title of the Season (the Name field above is used for CMS organization, and to set the initial slug only).",
            "required": 1,
            "conditional_logic": 0,
            "wrapper": {
                "width": "",
                "class": "",
                "id": ""
            },
            "default_value": "",
            "placeholder": "",
            "prepend": "",
            "append": "",
            "maxlength": ""
        },
        {
            "key": "field_6075bb5fbed0a",
            "label": "Season Number",
            "name": "series_number",
            "type": "number",
            "instructions": "The number of the series (The system needs this as a separate field for sorting purposes).",
            "required": 1,
            "conditional_logic": 0,
            "wrapper": {
                "width": "",
                "class": "",
                "id": ""
            },
            "default_value": "",
            "placeholder": "",
            "prepend": "",
            "append": "",
            "min": "",
            "max": "",
            "step": ""
        }
    ],
    "location": [
        [
            {
                "param": "taxonomy",
                "operator": "==",
                "value": "podcast-seasons"
            }
        ]
    ],
    "menu_order": 0,
    "position": "normal",
    "style": "default",
    "label_placement": "top",
    "instruction_placement": "label",
    "hide_on_screen": "",
    "active": true,
    "description": "",
    "modified": 1618811434
}